<svg width="154" height="153" viewBox="0 0 154 153" fill="none" xmlns="http://www.w3.org/2000/svg">
<path d="M110.361 79.6723V79.8026L110.48 79.8545C114.257 81.4958 118.743 82.7456 121.268 82.7456C122.021 82.7456 122.675 83.2624 122.849 83.9947C122.907 84.2386 124.323 90.3536 122.772 98.2017C121.338 105.455 116.997 115.609 104.435 122.78C104.185 122.922 103.907 122.994 103.629 122.994C103.351 122.994 103.073 122.923 102.823 122.78C99.8216 121.066 97.2912 119.183 95.157 117.211L95.0999 117.158H95.0221H35.7771C32.8696 117.158 30.5039 114.792 30.5039 111.885V58.9895C30.5039 57.0878 32.0514 55.5403 33.9531 55.5403H39.425H39.6237V55.3416V33.4531C39.6237 31.5514 41.1712 30.0039 43.0729 30.0039H97.7918C99.6935 30.0039 101.241 31.5514 101.241 33.4531V66.2853V66.484H101.44H105.088C107.995 66.484 110.361 68.8498 110.361 71.7572V79.6723ZM43.0729 33.2544H42.8742V33.4531V55.3414V55.5401H43.0729H58.4172C60.397 55.5401 62.18 56.7818 62.9537 58.716L66.011 66.3591L66.0609 66.484H66.1955H97.7918H97.9905V66.2853V33.4531V33.2544H97.7918H43.0729ZM33.9531 109.862H33.7544V110.06V111.885C33.7544 113 34.6616 113.907 35.7771 113.907H91.5761H91.9964L91.7296 113.582C87.371 108.275 85.3722 102.686 84.4859 98.2015C82.9346 90.354 84.3508 84.2393 84.409 83.9946C84.5832 83.2622 85.2375 82.7454 85.9902 82.7454C88.0532 82.7454 91.4215 81.912 94.6359 80.717C97.8476 79.5229 100.958 77.9484 102.486 76.4375C103.12 75.8112 104.139 75.8112 104.772 76.4374C105.291 76.9509 105.992 77.4681 106.807 77.9728L107.111 78.1605V77.8038V71.7572C107.111 70.6417 106.203 69.7346 105.088 69.7346H64.9608C64.2963 69.7346 63.6987 69.33 63.4518 68.7129L59.9357 59.9232C59.7173 59.3772 59.1704 58.7908 58.4172 58.7908H33.9531H33.7544V58.9895V106.413V106.611H33.9531H43.437C44.3346 106.611 45.0622 107.339 45.0622 108.236C45.0622 109.134 44.3346 109.862 43.437 109.862H33.9531ZM103.526 119.424L103.629 119.486L103.731 119.424C112.414 114.191 117.751 106.842 119.583 97.5713C120.593 92.4605 120.222 88.1445 119.921 86.0711L119.899 85.9193L119.747 85.9021C117.415 85.6401 114.396 84.8487 111.465 83.7548C108.532 82.6605 105.704 81.2696 103.747 79.8165L103.629 79.7285L103.511 79.8165C101.554 81.2692 98.7267 82.6599 95.7952 83.754C92.8644 84.8479 89.8462 85.6394 87.5142 85.9018L87.3615 85.9189L87.3397 86.071C87.0385 88.1716 86.663 92.5709 87.7037 97.7169C89.5649 106.92 94.8914 114.219 103.526 119.424Z" fill="#30302D" stroke="white" stroke-width="0.397403"/>
<path d="M91.1343 40.5505H49.7306C48.8329 40.5505 48.1053 39.8229 48.1053 38.9253C48.1053 38.0276 48.8329 37.3 49.7306 37.3H91.1343C92.032 37.3 92.7596 38.0276 92.7596 38.9253C92.7596 39.8229 92.032 40.5505 91.1343 40.5505Z" fill="#30302D" stroke="white" stroke-width="0.397403"/>
<path d="M91.1343 44.5962C92.032 44.5962 92.7596 45.3238 92.7596 46.2214C92.7596 47.119 92.0318 47.8467 91.1343 47.8467H49.7306C48.8329 47.8467 48.1053 47.1191 48.1053 46.2214C48.1053 45.3238 48.8329 44.5962 49.7306 44.5962H91.1343Z" fill="#30302D" stroke="white" stroke-width="0.397403"/>
<path d="M70.4327 51.8921H91.1346C92.0321 51.8921 92.7599 52.6197 92.7599 53.5173C92.7599 54.415 92.0323 55.1426 91.1346 55.1426H70.4327C69.535 55.1426 68.8074 54.415 68.8074 53.5173C68.8074 52.6197 69.535 51.8921 70.4327 51.8921Z" fill="#30302D" stroke="white" stroke-width="0.397403"/>
<path d="M80.3731 59.1875H91.1345C92.0319 59.1875 92.7597 59.9151 92.7597 60.8127C92.7597 61.7104 92.0321 62.438 91.1345 62.438H80.3731C79.4755 62.438 78.7478 61.7104 78.7478 60.8127C78.7478 59.9151 79.4755 59.1875 80.3731 59.1875Z" fill="#30302D" stroke="white" stroke-width="0.397403"/>
<path d="M100.11 105.362L100.11 105.362L95.3856 100.638C95.3856 100.638 95.3856 100.638 95.3856 100.638C95.0037 100.256 94.7933 99.7475 94.7933 99.2078C94.7933 98.668 95.0039 98.1596 95.3855 97.778L100.11 105.362ZM100.11 105.362C100.899 106.15 102.181 106.151 102.97 105.362L111.873 96.459M100.11 105.362L111.873 96.459M111.873 96.459C112.661 95.6704 112.661 94.3879 111.872 93.5993L111.873 96.459ZM101.399 96.335L101.54 96.4755L101.68 96.335L106.714 91.3008C107.711 90.3046 109.034 89.7563 110.443 89.7563C111.852 89.7563 113.175 90.3046 114.171 91.301L114.171 91.301C116.227 93.3565 116.227 96.7021 114.171 98.7578L105.268 107.661C105.268 107.661 105.268 107.661 105.268 107.661C104.24 108.689 102.89 109.203 101.539 109.203C100.189 109.203 98.8389 108.689 97.8112 107.661L93.0868 102.937C93.0868 102.937 93.0868 102.936 93.0868 102.936C92.0907 101.94 91.5424 100.617 91.5424 99.208C91.5424 97.7992 92.0907 96.4757 93.0869 95.4795C94.083 94.4835 95.4064 93.9352 96.8152 93.9352C98.2241 93.9352 99.5475 94.4833 100.544 95.4795L101.399 96.335ZM96.8154 97.1857C96.2758 97.1857 95.7672 97.3961 95.3856 97.778L111.872 93.5992C111.491 93.2176 110.982 93.007 110.443 93.007C109.903 93.007 109.394 93.2174 109.013 93.5993L102.689 99.9231C102.384 100.228 101.971 100.399 101.54 100.399C101.109 100.399 100.695 100.228 100.39 99.9231L98.2453 97.778C97.8637 97.3963 97.3551 97.1857 96.8154 97.1857Z" fill="#C0172B" stroke="white" stroke-width="0.397403"/>
<path d="M50.0193 108.236C50.0193 107.339 50.747 106.611 51.6446 106.611C52.5424 106.611 53.2707 107.339 53.2707 108.236C53.2707 109.134 52.5435 109.862 51.6459 109.862H51.6446C50.747 109.862 50.0193 109.134 50.0193 108.236Z" fill="#30302D" stroke="white" stroke-width="0.397403"/>
</svg>
